…
Notice how the data is structured. Each record indicates a month cohort, the total leads/signups in that month, and the total leads/signups converted at specific days each month. Whenever there’s at least one unit converted at a specific day interval, one record will be created. Now let’s calculate the conversion rate for each record:

    ## # A tibble: 107 × 3
    ## # Groups:   days_to_convert [60]
    ##    days_to_convert created_cohort conversion_rate
    ##              <int> <chr>                    <dbl>
    ##  1               1 23-Jan                0.00124 
    ##  2               1 23-Mar                0.00139 
    ##  3               2 23-Apr                0.00538 
    ##  4               2 23-Feb                0.00172 
    ##  5               2 23-Jan                0.000927
    ##  6               2 23-Mar                0.00104 
    ##  7               3 23-Apr                0.00269 
    ##  8               3 23-Feb                0.000690
    ##  9               3 23-Mar                0.000693
    ## 10               4 23-Jan                0.000618
    ## # ℹ 97 more rows
…
